Week3/rca_test.vcd
$date
	Tue Aug 20 15:21:29 2024
$end
$version
	Icarus Verilog
$end
$timescale
	1s
$end
$scope module tb $end
$var wire 4 ! o [3:0] $end
$var wire 1 " cout $end
$var reg 1 # cin $end
$var reg 1 $ clk $end
$var reg 4 % i0 [3:0] $end
$var reg 4 & i1 [3:0] $end
$var reg 1 ' reset $end
$var integer 32 ( i [31:0] $end
$scope module u0 $end
$var wire 4 ) a [3:0] $end
$var wire 4 * b [3:0] $end
$var wire 1 # cin $end
$var wire 4 + sum [3:0] $end
$var wire 1 " cout $end
$var wire 3 , c [2:0] $end
$scope module u0 $end
$var wire 1 - A $end
$var wire 1 . B $end
$var wire 1 # Cin $end
$var wire 5 / t [4:0] $end
$var wire 1 0 S $end
$var wire 1 1 Cout $end
$scope module G1 $end
$var wire 1 - i0 $end
$var wire 1 . i1 $end
$var wire 1 2 o6 $end
$upscope $end
$scope module G2 $end
$var wire 1 3 i0 $end
$var wire 1 # i1 $end
$var wire 1 0 o2 $end
$upscope $end
$scope module G3 $end
$var wire 1 - i0 $end
$var wire 1 . i1 $end
$var wire 1 4 o2 $end
$upscope $end
$scope module G4 $end
$var wire 1 - i0 $end
$var wire 1 # i1 $end
$var wire 1 5 o2 $end
$upscope $end
$scope module G5 $end
$var wire 1 . i0 $end
$var wire 1 # i1 $end
$var wire 1 6 o2 $end
$upscope $end
$scope module G6 $end
$var wire 1 7 i0 $end
$var wire 1 8 i1 $end
$var wire 1 9 o3 $end
$upscope $end
$scope module G7 $end
$var wire 1 : i0 $end
$var wire 1 ; i1 $end
$var wire 1 1 o3 $end
$upscope $end
$upscope $end
$scope module u1 $end
$var wire 1 < A $end
$var wire 1 = B $end
$var wire 1 > Cin $end
$var wire 5 ? t [4:0] $end
$var wire 1 @ S $end
$var wire 1 A Cout $end
$scope module G1 $end
$var wire 1 < i0 $end
$var wire 1 = i1 $end
$var wire 1 B o6 $end
$upscope $end
$scope module G2 $end
$var wire 1 C i0 $end
$var wire 1 > i1 $end
$var wire 1 @ o2 $end
$upscope $end
$scope module G3 $end
$var wire 1 < i0 $end
$var wire 1 = i1 $end
$var wire 1 D o2 $end
$upscope $end
$scope module G4 $end
$var wire 1 < i0 $end
$var wire 1 > i1 $end
$var wire 1 E o2 $end
$upscope $end
$scope module G5 $end
$var wire 1 = i0 $end
$var wire 1 > i1 $end
$var wire 1 F o2 $end
$upscope $end
$scope module G6 $end
$var wire 1 G i0 $end
$var wire 1 H i1 $end
$var wire 1 I o3 $end
$upscope $end
$scope module G7 $end
$var wire 1 J i0 $end
$var wire 1 K i1 $end
$var wire 1 A o3 $end
$upscope $end
$upscope $end
$scope module u2 $end
$var wire 1 L A $end
$var wire 1 M B $end
$var wire 1 N Cin $end
$var wire 5 O t [4:0] $end
$var wire 1 P S $end
$var wire 1 Q Cout $end
$scope module G1 $end
$var wire 1 L i0 $end
$var wire 1 M i1 $end
$var wire 1 R o6 $end
$upscope $end
$scope module G2 $end
$var wire 1 S i0 $end
$var wire 1 N i1 $end
$var wire 1 P o2 $end
$upscope $end
$scope module G3 $end
$var wire 1 L i0 $end
$var wire 1 M i1 $end
$var wire 1 T o2 $end
$upscope $end
$scope module G4 $end
$var wire 1 L i0 $end
$var wire 1 N i1 $end
$var wire 1 U o2 $end
$upscope $end
$scope module G5 $end
$var wire 1 M i0 $end
$var wire 1 N i1 $end
$var wire 1 V o2 $end
$upscope $end
$scope module G6 $end
$var wire 1 W i0 $end
$var wire 1 X i1 $end
$var wire 1 Y o3 $end
$upscope $end
$scope module G7 $end
$var wire 1 Z i0 $end
$var wire 1 [ i1 $end
$var wire 1 Q o3 $end
$upscope $end
$upscope $end
$scope module u3 $end
$var wire 1 \ A $end
$var wire 1 ] B $end
$var wire 1 ^ Cin $end
$var wire 5 _ t [4:0] $end
$var wire 1 ` S $end
$var wire 1 " Cout $end
$scope module G1 $end
$var wire 1 \ i0 $end
$var wire 1 ] i1 $end
$var wire 1 a o6 $end
$upscope $end
$scope module G2 $end
$var wire 1 b i0 $end
$var wire 1 ^ i1 $end
$var wire 1 ` o2 $end
$upscope $end
$scope module G3 $end
$var wire 1 \ i0 $end
$var wire 1 ] i1 $end
$var wire 1 c o2 $end
$upscope $end
$scope module G4 $end
$var wire 1 \ i0 $end
$var wire 1 ^ i1 $end
$var wire 1 d o2 $end
$upscope $end
$scope module G5 $end
$var wire 1 ] i0 $end
$var wire 1 ^ i1 $end
$var wire 1 e o2 $end
$upscope $end
$scope module G6 $end
$var wire 1 f i0 $end
$var wire 1 g i1 $end
$var wire 1 h o3 $end
$upscope $end
$scope module G7 $end
$var wire 1 i i0 $end
$var wire 1 j i1 $end
$var wire 1 " o3 $end
$upscope $end
$upscope $end
$upscope $end
$upscope $end
$enddefinitions $end
$comment Show the parameter values. $end
$dumpall
$end
#0
$dumpvars
0j
0i
0h
0g
0f
0e
0d
0c
0b
0a
0`
b0 _
0^
0]
0\
0[
0Z
0Y
0X
0W
0V
0U
0T
0S
0R
0Q
0P
b0 O
0N
0M
0L
0K
0J
0I
0H
0G
0F
0E
0D
0C
0B
0A
0@
b0 ?
0>
0=
0<
0;
0:
09
08
07
06
05
04
03
02
01
00
b0 /
0.
0-
b0 ,
b0 +
b0 *
b0 )
b0 (
1'
b0 &
b0 %
0$
0#
0"
b0 !
$end
#5
1$
#10
0$
#13
0'
#15
1$
#16
b1 (
#20
0$
#25
1$
#26
b10 (
1#
#30
0$
#35
1$
#36
1>
b1 ,
11
1;
19
17
b10010 /
14
1-
1.
b11 (
b1 %
b1 )
b1 &
b1 *
0#
#40
0$
#45
1$
#46
18
1:
15
b11110 /
16
b100 (
1#
#50
0$
#55
1$
#56
0>
01
0;
1K
1N
09
1I
b10 ,
1A
0H
07
1G
0J
0E
04
1D
b10010 ?
0F
08
0:
0-
1<
0.
1=
05
b0 /
06
b101 (
b10 %
b10 )
b10 &
b10 *
0#
#60
0$
#65
1$
#66
b110 (
1#
#70
0$
#75
1$
#76
1"
1j
1h
13
1f
b1 /
12
b10010 _
1c
1\
1.
1]
b111 (
b1010 %
b1010 )
b1011 &
b1011 *
0#
#80
0$
#85
1$
#86
1H
1J
1E
b11110 ?
1F
1>
b11 ,
11
1:
b1 !
b1 +
10
b1001 /
16
b1000 (
1#
#90
0$
#95
1$
#96
1g
1i
1d
b11110 _
1e
0H
0J
1[
1^
0E
b10010 ?
0F
1Y
1Q
0>
1X
1W
1Z
b110 ,
01
1U
1T
b11110 O
1V
0:
1L
1M
b0 !
b0 +
00
b1 /
06
b1001 (
b1110 %
b1110 )
b1111 &
b1111 *
0#
#100
0$
#105
1$
#106
1H
1J
1E
b11110 ?
1F
1>
b111 ,
11
1:
b1 !
b1 +
10
b1001 /
16
b1010 (
1#
